Analysis of Beer Reviews | Tim Trice
…
## # A tibble: 0 x 2
## # ... with 2 variables: brewery_id <int>, n <int>

My instinct is wrong. I’ll flip it.

df %>% 
  group_by(brewery_name) %>% 
  summarise(n = length(unique(brewery_id))) %>% 
  filter(n > 1) %>% 
  arrange(brewery_name)

## # A tibble: 60 x 2
##                           brewery_name     n
##                                  <chr> <int>
##  1                 Back Street Brewery     4
##  2                Baja Brewing Company     2
##  3          Bare Bones Grill & Brewery     2
##  4    Big River Grille & Brewing Works     3
##  5           BJ's Restaurant & Brewery     4
##  6         BJ's Restaurant & Brewhouse     3
##  7       BJ's Restaurant And Brewhouse     2
##  8 Brew Moon Restaurant & Microbrewery     2
##  9                        C.B. & Potts     3
## 10                Capitol City Brewing     3
## # ... with 50 more rows
…
Data Cleaning

There are four variables I’m most concerned about that will need to be cleaned: brewery_id, brewery_name, beer_name and beer_beerid.

Recall again the list of brewery names that had more than one brewery id:

df %>% 
  group_by(brewery_name) %>% 
  summarise(n = length(unique(brewery_id))) %>% 
  filter(n > 1) %>% 
  arrange(brewery_name)

## # A tibble: 60 x 2
##                           brewery_name     n
##                                  <chr> <int>
##  1                 Back Street Brewery     4
##  2                Baja Brewing Company     2
##  3          Bare Bones Grill & Brewery     2
##  4    Big River Grille & Brewing Works     3
##  5           BJ's Restaurant & Brewery     4
##  6         BJ's Restaurant & Brewhouse     3
##  7       BJ's Restaurant And Brewhouse     2
##  8 Brew Moon Restaurant & Microbrewery     2
##  9                        C.B. & Potts     3
## 10                Capitol City Brewing     3
## # ... with 50 more rows
…
